<svg xmlns="http://www.w3.org/2000/svg" xmlns:xlink="http://www.w3.org/1999/xlink" preserveAspectRatio="xMidYMid" width="189.998" height="189.998" viewBox="0 0 48 48">
  <defs>
    <style>
      .cls-1 {
        fill: #67c9d3;
      }

      .cls-2 {
        fill: #fff;
        fill-rule: evenodd;
      }

      .cls-3 {
        fill: #f99d34;
      }
    </style>
  </defs>
  <g>
    <circle cx="24" cy="24" r="24" class="cls-1"/>
    <path d="M32.500,43.000 C31.672,43.000 31.000,42.328 31.000,41.500 L31.000,34.500 C31.000,33.672 31.672,33.000 32.500,33.000 C33.328,33.000 34.000,33.672 34.000,34.500 L34.000,41.500 C34.000,42.328 33.328,43.000 32.500,43.000 ZM27.500,41.000 C26.672,41.000 26.000,40.328 26.000,39.500 L26.000,34.500 C26.000,33.672 26.672,33.000 27.500,33.000 C28.328,33.000 29.000,33.672 29.000,34.500 L29.000,39.500 C29.000,40.328 28.328,41.000 27.500,41.000 ZM22.500,39.000 C21.672,39.000 21.000,38.328 21.000,37.500 L21.000,34.500 C21.000,33.672 21.672,33.000 22.500,33.000 C23.328,33.000 24.000,33.672 24.000,34.500 L24.000,37.500 C24.000,38.328 23.328,39.000 22.500,39.000 ZM17.500,37.000 C16.672,37.000 16.000,36.328 16.000,35.500 L16.000,34.500 C16.000,33.672 16.672,33.000 17.500,33.000 C18.328,33.000 19.000,33.672 19.000,34.500 L19.000,35.500 C19.000,36.328 18.328,37.000 17.500,37.000 Z" class="cls-2"/>
    <circle cx="18" cy="18" r="8" class="cls-3"/>
    <path d="M39.996,25.002 C39.996,28.264 37.359,30.908 34.107,30.908 L15.887,30.908 C12.635,30.908 9.999,28.264 9.999,25.002 C9.999,22.056 12.149,19.615 14.961,19.169 C14.925,18.962 14.906,18.748 14.906,18.530 C14.906,16.463 16.576,14.788 18.637,14.788 C19.557,14.788 20.399,15.122 21.049,15.676 C22.208,13.058 23.692,10.668 27.859,10.668 C32.912,10.668 35.307,14.576 35.307,18.702 C35.307,18.875 35.300,19.045 35.288,19.215 C37.974,19.763 39.996,22.146 39.996,25.002 Z" class="cls-2"/>
  </g>
</svg>
