<svg xmlns="http://www.w3.org/2000/svg" xmlns:xlink="http://www.w3.org/1999/xlink" preserveAspectRatio="xMidYMid" width="19" height="19" viewBox="0 0 19 19">
  <defs>
    <style>
      .cls-1 {
        fill: #fff;
        fill-rule: evenodd;
      }
    </style>
  </defs>
  <path d="M12.825,11.717 C14.646,10.608 15.833,8.629 15.833,6.333 C15.833,2.850 12.983,-0.000 9.500,-0.000 C6.016,-0.000 3.166,2.850 3.166,6.333 C3.166,8.629 4.354,10.608 6.175,11.717 C3.008,12.904 0.633,15.675 -0.000,19.000 L1.583,19.000 C2.375,15.358 5.621,12.667 9.500,12.667 C13.379,12.667 16.625,15.358 17.416,19.000 L19.000,19.000 C18.366,15.596 15.991,12.825 12.825,11.717 ZM4.750,6.333 C4.750,3.721 6.887,1.583 9.500,1.583 C12.112,1.583 14.250,3.721 14.250,6.333 C14.250,8.946 12.112,11.083 9.500,11.083 C6.887,11.083 4.750,8.946 4.750,6.333 Z" class="cls-1"/>
</svg>
